[gd_scene load_steps=4 format=2]

[ext_resource path="res://Rock.gd" type="Script" id=1]
[ext_resource path="res://assets/models/Map_Rock_3.dae" type="PackedScene" id=2]

[sub_resource type="SphereShape" id=1]

radius = 1.46822

[node name="Rock_3" type="StaticBody"]

input_ray_pickable = false
input_capture_on_drag = false
collision_layer = 1
collision_mask = 1
friction = 1.0
bounce = 0.0
constant_linear_velocity = Vector3( 0, 0, 0 )
constant_angular_velocity = Vector3( 0, 0, 0 )
script = ExtResource( 1 )
_sections_unfolded = [ "Collision" ]

[node name="CollisionShape" type="CollisionShape" parent="." index="0"]

transform = Transform( 1, 0, 0, 0, 1, 0, 0, 0, 1, 0, 0.0577944, 0.284239 )
shape = SubResource( 1 )
disabled = false

[node name="Scene Root" parent="." index="1" instance=ExtResource( 2 )]

transform = Transform( 0.747752, 0, 0, 0, 0.747752, 0, 0, 0, 0.747752, 0, 0, 0 )

[connection signal="input_event" from="." to="." method="_on_Ground_input_event"]


