[gd_scene load_steps=6 format=2]

[ext_resource path="res://Unit_Collector.gd" type="Script" id=1]
[ext_resource path="res://assets/models/Unit_Collector.dae" type="PackedScene" id=2]
[ext_resource path="res://HealthBar.tscn" type="PackedScene" id=3]
[ext_resource path="res://CooldownBar.tscn" type="PackedScene" id=4]

[sub_resource type="CapsuleShape" id=1]

radius = 6.322
height = 4.70038

[node name="Collector" type="RigidBody"]

input_ray_pickable = true
input_capture_on_drag = false
collision_layer = 1
collision_mask = 1
mode = 0
mass = 1.0
friction = 1.0
bounce = 0.0
gravity_scale = 0.0
custom_integrator = false
continuous_cd = false
contacts_reported = 0
contact_monitor = false
sleeping = false
can_sleep = true
axis_lock_linear_x = false
axis_lock_linear_y = true
axis_lock_linear_z = false
axis_lock_angular_x = true
axis_lock_angular_y = false
axis_lock_angular_z = true
linear_velocity = Vector3( 0, 0, 0 )
linear_damp = -1.0
angular_velocity = Vector3( 0, 0, 0 )
angular_damp = -1.0
script = ExtResource( 1 )
_sections_unfolded = [ "Axis Lock", "Transform" ]

[node name="CollisionShape" type="CollisionShape" parent="." index="0"]

transform = Transform( 1, 0, 0, 0, 1, 0, 0, 0, 1, 0.00625193, 4.24967, -0.168847 )
shape = SubResource( 1 )
disabled = false
_sections_unfolded = [ "Transform" ]

[node name="ScaleWrapper" type="Spatial" parent="." index="1"]

_sections_unfolded = [ "Transform" ]

[node name="Model" parent="ScaleWrapper" index="0" instance=ExtResource( 2 )]

transform = Transform( 1, 0, 0, 0, 1, 0, 0, 0, 1, -1.82622, 1.00532, -1.53685 )
_sections_unfolded = [ "Transform" ]

[node name="HealthBar" parent="ScaleWrapper" index="1" instance=ExtResource( 3 )]

transform = Transform( 1, 0, 0, 0, 1, 0, 0, 0, 1, 0, 9.72975, 0 )

[node name="CooldownBar" parent="ScaleWrapper" index="2" instance=ExtResource( 4 )]

transform = Transform( 1, 0, 0, 0, 1, 0, 0, 0, 1, 0, 8.98602, 0 )
visible = false

[connection signal="input_event" from="." to="." method="_on_Tank_input_event"]


